<svg id="icon" width="24" height="24" viewBox="0 0 24 24" fill="none" xmlns="http://www.w3.org/2000/svg">
<circle opacity="0.2" cx="12" cy="12" r="12" fill="white"/>
<path d="M8 8L16 16M16 8L8 16" stroke="white" stroke-width="1.8" stroke-linecap="round"/>
</svg>
